handshake/receiver_tb.vcd
$date
	Fri Dec 16 16:01:42 2022
$end
$version
	Icarus Verilog
$end
$timescale
	1ns
$end
$scope module receiver_tb $end
$var wire 1 ! ready $end
$var reg 1 " clk $end
$var reg 8 # data [7:0] $end
$var reg 1 $ rst $end
$var reg 1 % valid $end
$var integer 32 & index [31:0] $end
$scope module DUT $end
$var wire 1 " clk $end
$var wire 8 ' data [7:0] $end
$var wire 1 $ rst $end
$var wire 1 % valid $end
$var wire 1 ! ready $end
$var reg 5 ( idx [4:0] $end
$upscope $end
$upscope $end
$enddefinitions $end
#0
$dumpvars
bx (
b0 '
b10000 &
x%
0$
b0 #
0"
x!
$end
#4
1!
b0 (
1$
1"
#8
0"
#12
1"
#16
0"
#20
1"
#24
0"
#28
1"
#32
0"
#36
1"
#40
0"
#44
1"
#48
0"
#52
1"
#56
0"
#60
1"
#64
0"
#68
1"
#72
0"
#76
1"
#80
0"
#84
b0 &
0$
1"
#88
0"
#92
1"
#96
0"
#100
1"
#104
0"
#108
1"
#112
0"
#116
1"
#120
0"
#124
1"
#128
0"
#132
1"
#136
0"
#140
1"
#144
0"
#148
1"
#152
0"
#156
1"
#160
0"
#164
1"
#165
b1 #
b1 '
1%
#168
0"
#172
b1 (
1"
#173
b1 &
0%
#176
0"
#180
1"
#184
0"
#188
1"
#192
0"
#196
1"
#200
0"
#204
1"
#208
0"
#212
1"
#216
0"
#220
1"
#224
0"
#228
1"
#232
0"
#236
1"
#240
0"
#244
1"
#248
0"
#252
1"
#253
b10 #
b10 '
1%
#256
0"
#260
b10 (
1"
#261
b10 &
0%
#264
0"
#268
1"
#272
0"
#276
1"
#280
0"
#284
1"
#288
0"
#292
1"
#296
0"
#300
1"
#304
0"
#308
1"
#312
0"
#316
1"
#320
0"
#324
1"
#328
0"
#332
1"
#336
0"
#340
1"
#341
b11 #
b11 '
1%
#344
0"
#348
b11 (
1"
#349
b11 &
0%
#352
0"
#356
1"
#360
0"
#364
1"
#368
0"
#372
1"
#376
0"
#380
1"
#384
0"
#388
1"
#392
0"
#396
1"
#400
0"
#404
1"
#408
0"
#412
1"
#416
0"
#420
1"
#424
0"
#428
1"
#429
b100 #
b100 '
1%
#432
0"
#436
b100 (
1"
#437
b100 &
0%
#440
0"
#444
1"
#448
0"
#452
1"
#456
0"
#460
1"
#464
0"
#468
1"
#472
0"
#476
1"
#480
0"
#484
1"
#488
0"
#492
1"
#496
0"
#500
1"
#504
0"
#508
1"
#512
0"
#516
1"
#517
b101 #
b101 '
1%
#520
0"
#524
b101 (
1"
#525
b101 &
0%
#528
0"
#532
1"
#536
0"
#540
1"
#544
0"
#548
1"
#552
0"
#556
1"
#560
0"
#564
1"
#568
0"
#572
1"
#576
0"
#580
1"
#584
0"
#588
1"
#592
0"
#596
1"
#600
0"
#604
1"
#605
b110 #
b110 '
1%
#608
0"
#612
b110 (
1"
#613
b110 &
0%
#616
0"
#620
1"
#624
0"
#628
1"
#632
0"
#636
1"
#640
0"
#644
1"
#648
0"
#652
1"
#656
0"
#660
1"
#664
0"
#668
1"
#672
0"
#676
1"
#680
0"
#684
1"
#688
0"
#692
1"
#693
b111 #
b111 '
1%
#696
0"
#700
b111 (
1"
#701
b111 &
0%
#704
0"
#708
1"
#712
0"
#716
1"
#720
0"
#724
1"
#728
0"
#732
1"
#736
0"
#740
1"
#744
0"
#748
1"
#752
0"
#756
1"
#760
0"
#764
1"
#768
0"
#772
1"
#776
0"
#780
1"
#781
b1000 #
b1000 '
1%
#784
0"
#788
b1000 (
1"
#789
b1000 &
0%
#792
0"
#796
1"
#800
0"
#804
1"
#808
0"
#812
1"
#816
0"
#820
1"
#824
0"
#828
1"
#832
0"
#836
1"
#840
0"
#844
1"
#848
0"
#852
1"
#856
0"
#860
1"
#864
0"
#868
1"
#869
b1001 #
b1001 '
1%
#872
0"
#876
b1001 (
1"
#877
b1001 &
0%
#880
0"
#884
1"
#888
0"
#892
1"
#896
0"
#900
1"
#904
0"
#908
1"
#912
0"
#916
1"
#920
0"
#924
1"
#928
0"
#932
1"
#936
0"
#940
1"
#944
0"
#948
1"
#952
0"
#956
1"
#957
b1010 #
b1010 '
1%
#960
0"
#964
b1010 (
1"
#965
b1010 &
0%
#968
0"
#972
1"
#976
0"
#980
1"
#984
0"
#988
1"
#992
0"
#996
1"
#1000
0"
#1004
1"
#1008
0"
#1012
1"
#1016
0"
#1020
1"
#1024
0"
#1028
1"
#1032
0"
#1036
1"
#1040
0"
#1044
1"
#1045
b1011 #
b1011 '
1%
#1048
0"
#1052
b1011 (
1"
#1053
b1011 &
0%
#1056
0"
#1060
1"
#1064
0"
#1068
1"
#1072
0"
#1076
1"
#1080
0"
#1084
1"
#1088
0"
#1092
1"
#1096
0"
#1100
1"
#1104
0"
#1108
1"
#1112
0"
#1116
1"
#1120
0"
#1124
1"
#1128
0"
#1132
1"
#1133
b1100 #
b1100 '
1%
#1136
0"
#1140
b1100 (
1"
#1141
b1100 &
0%
#1144
0"
#1148
1"
#1152
0"
#1156
1"
#1160
0"
#1164
1"
#1168
0"
#1172
1"
#1176
0"
#1180
1"
#1184
0"
#1188
1"
#1192
0"
#1196
1"
#1200
0"
#1204
1"
#1208
0"
#1212
1"
#1216
0"
#1220
1"
#1221
b1101 #
b1101 '
1%
#1224
0"
#1228
b1101 (
1"
#1229
b1101 &
0%
#1232
0"
#1236
1"
#1240
0"
#1244
1"
#1248
0"
#1252
1"
#1256
0"
#1260
1"
#1264
0"
#1268
1"
#1272
0"
#1276
1"
#1280
0"
#1284
1"
#1288
0"
#1292
1"
#1296
0"
#1300
1"
#1304
0"
#1308
1"
#1309
b1110 #
b1110 '
1%
#1312
0"
#1316
b1110 (
1"
#1317
b1110 &
0%
#1320
0"
#1324
1"
#1328
0"
#1332
1"
#1336
0"
#1340
1"
#1344
0"
#1348
1"
#1352
0"
#1356
1"
#1360
0"
#1364
1"
#1368
0"
#1372
1"
#1376
0"
#1380
1"
#1384
0"
#1388
1"
#1392
0"
#1396
1"
#1397
b1111 #
b1111 '
1%
#1400
0"
#1404
b1111 (
1"
#1405
b1111 &
0%
#1408
0"
#1412
1"
#1416
0"
#1420
1"
#1424
0"
#1428
1"
#1432
0"
#1436
1"
#1440
0"
#1444
1"
#1448
0"
#1452
1"
#1456
0"
#1460
1"
#1464
0"
#1468
1"
#1472
0"
#1476
1"
#1480
0"
#1484
1"
#1485
b10000 #
b10000 '
1%
#1488
0"
#1492
0!
b10000 (
1"
#1493
b10000 &
0%
#1496
0"
#1500
1"
#1504
0"
#1508
1"
#1512
0"
#1516
1"
#1520
0"
#1524
1"
#1528
0"
#1532
1"
#1536
0"
#1540
1"
#1544
0"
#1548
1"
#1552
0"
#1556
1"
#1560
0"
#1564
1"
#1568
0"
#1572
1"
#1573
b10001 #
b10001 '
1%
#1576
0"
#1580
1"
#1581
b10001 &
0%
#1584
0"
#1588
1"
#1592
0"
#1596
1"
#1600
0"
#1604
1"
#1608
0"
#1612
1"
#1616
0"
#1620
1"
#1624
0"
#1628
1"
#1632
0"
#1636
1"
#1640
0"
#1644
1"
#1648
0"
#1652
1"
#1656
0"
#1660
1"
#1661
b10010 #
b10010 '
1%
#1664
0"
#1668
1"
#1669
b10000 &
0%
